{
    "page": 1,
    "per_page": 15,
    "photos": [
        {
            "id": 20763688,
            "width": 4000,
            "height": 2250,
            "url": "https://www.pexels.com/photo/spring-baikal-lake-20763688/",
            "photographer": "NIck Bulanov",
            "photographer_url": "https://www.pexels.com/@nick-bulanov-1110438433",
            "photographer_id": 1110438433,
            "avg_color": "#56623A",
            "src": {
                "original": "https://images.pexels.com/photos/20763688/pexels-photo-20763688.jpeg",
                "large2x": "https://images.pexels.com/photos/20763688/pexels-photo-20763688.jpeg?auto=compress\u0026cs=tinysrgb\u0026dpr=2\u0026h=650\u0026w=940",
                "large": "https://images.pexels.com/photos/20763688/pexels-photo-20763688.jpeg?auto=compress\u0026cs=tinysrgb\u0026h=650\u0026w=940",
                "medium": "https://images.pexels.com/photos/20763688/pexels-photo-20763688.jpeg?auto=compress\u0026cs=tinysrgb\u0026h=350",
                "small": "https://images.pexels.com/photos/20763688/pexels-photo-20763688.jpeg?auto=compress\u0026cs=tinysrgb\u0026h=130",
                "portrait": "https://images.pexels.com/photos/20763688/pexels-photo-20763688.jpeg?auto=compress\u0026cs=tinysrgb\u0026fit=crop\u0026h=1200\u0026w=800",
                "landscape": "https://images.pexels.com/photos/20763688/pexels-photo-20763688.jpeg?auto=compress\u0026cs=tinysrgb\u0026fit=crop\u0026h=627\u0026w=1200",
                "tiny": "https://images.pexels.com/photos/20763688/pexels-photo-20763688.jpeg?auto=compress\u0026cs=tinysrgb\u0026dpr=1\u0026fit=crop\u0026h=200\u0026w=280"
            },
            "liked": false,
            "alt": "Spring baikal lake"
        },
        {
            "id": 20761525,
            "width": 2835,
            "height": 4252,
            "url": "https://www.pexels.com/photo/a-woman-sitting-at-a-cafe-in-hoi-an-20761525/",
            "photographer": "Lee  Nhan",
            "photographer_url": "https://www.pexels.com/@lee-nhan-1082990248",
            "photographer_id": 1082990248,
            "avg_color": "#615D37",
            "src": {
                "original": "https://images.pexels.com/photos/20761525/pexels-photo-20761525.jpeg",
                "large2x": "https://images.pexels.com/photos/20761525/pexels-photo-20761525.jpeg?auto=compress\u0026cs=tinysrgb\u0026dpr=2\u0026h=650\u0026w=940",
                "large": "https://images.pexels.com/photos/20761525/pexels-photo-20761525.jpeg?auto=compress\u0026cs=tinysrgb\u0026h=650\u0026w=940",
                "medium": "https://images.pexels.com/photos/20761525/pexels-photo-20761525.jpeg?auto=compress\u0026cs=tinysrgb\u0026h=350",
                "small": "https://images.pexels.com/photos/20761525/pexels-photo-20761525.jpeg?auto=compress\u0026cs=tinysrgb\u0026h=130",
                "portrait": "https://images.pexels.com/photos/20761525/pexels-photo-20761525.jpeg?auto=compress\u0026cs=tinysrgb\u0026fit=crop\u0026h=1200\u0026w=800",
                "landscape": "https://images.pexels.com/photos/20761525/pexels-photo-20761525.jpeg?auto=compress\u0026cs=tinysrgb\u0026fit=crop\u0026h=627\u0026w=1200",
                "tiny": "https://images.pexels.com/photos/20761525/pexels-photo-20761525.jpeg?auto=compress\u0026cs=tinysrgb\u0026dpr=1\u0026fit=crop\u0026h=200\u0026w=280"
            },
            "liked": false,
            "alt": "A woman sitting at a cafe in hoi an"
        },
        {
            "id": 20762152,
            "width": 4640,
            "height": 6960,
            "url": "https://www.pexels.com/photo/peafowl-20762152/",
            "photographer": "Efrem  Efre",
            "photographer_url": "https://www.pexels.com/@efrem-efre-2786187",
            "photographer_id": 2786187,
            "avg_color": "#5A5E45",
            "src": {
                "original": "https://images.pexels.com/photos/20762152/pexels-photo-20762152.jpeg",
                "large2x": "https://images.pexels.com/photos/20762152/pexels-photo-20762152.jpeg?auto=compress\u0026cs=tinysrgb\u0026dpr=2\u0026h=650\u0026w=940",
                "large": "https://images.pexels.com/photos/20762152/pexels-photo-20762152.jpeg?auto=compress\u0026cs=tinysrgb\u0026h=650\u0026w=940",
                "medium": "https://images.pexels.com/photos/20762152/pexels-photo-20762152.jpeg?auto=compress\u0026cs=tinysrgb\u0026h=350",
                "small": "https://images.pexels.com/photos/20762152/pexels-photo-20762152.jpeg?auto=compress\u0026cs=tinysrgb\u0026h=130",
                "portrait": "https://images.pexels.com/photos/20762152/pexels-photo-20762152.jpeg?auto=compress\u0026cs=tinysrgb\u0026fit=crop\u0026h=1200\u0026w=800",
                "landscape": "https://images.pexels.com/photos/20762152/pexels-photo-20762152.jpeg?auto=compress\u0026cs=tinysrgb\u0026fit=crop\u0026h=627\u0026w=1200",
                "tiny": "https://images.pexels.com/photos/20762152/pexels-photo-20762152.jpeg?auto=compress\u0026cs=tinysrgb\u0026dpr=1\u0026fit=crop\u0026h=200\u0026w=280"
            },
            "liked": false,
            "alt": "peafowl "
        },
        {
            "id": 20746237,
            "width": 2538,
            "height": 2500,
            "url": "https://www.pexels.com/photo/a-view-of-the-beach-from-under-the-cabana-20746237/",
            "photographer": "Michelle Timotin",
            "photographer_url": "https://www.pexels.com/@michelle-timotin-18395192",
            "photographer_id": 18395192,
            "avg_color": "#B8C0C2",
            "src": {
                "original": "https://images.pexels.com/photos/20746237/pexels-photo-20746237.jpeg",
                "large2x": "https://images.pexels.com/photos/20746237/pexels-photo-20746237.jpeg?auto=compress\u0026cs=tinysrgb\u0026dpr=2\u0026h=650\u0026w=940",
                "large": "https://images.pexels.com/photos/20746237/pexels-photo-20746237.jpeg?auto=compress\u0026cs=tinysrgb\u0026h=650\u0026w=940",
                "medium": "https://images.pexels.com/photos/20746237/pexels-photo-20746237.jpeg?auto=compress\u0026cs=tinysrgb\u0026h=350",
                "small": "https://images.pexels.com/photos/20746237/pexels-photo-20746237.jpeg?auto=compress\u0026cs=tinysrgb\u0026h=130",
                "portrait": "https://images.pexels.com/photos/20746237/pexels-photo-20746237.jpeg?auto=compress\u0026cs=tinysrgb\u0026fit=crop\u0026h=1200\u0026w=800",
                "landscape": "https://images.pexels.com/photos/20746237/pexels-photo-20746237.jpeg?auto=compress\u0026cs=tinysrgb\u0026fit=crop\u0026h=627\u0026w=1200",
                "tiny": "https://images.pexels.com/photos/20746237/pexels-photo-20746237.jpeg?auto=compress\u0026cs=tinysrgb\u0026dpr=1\u0026fit=crop\u0026h=200\u0026w=280"
            },
            "liked": false,
            "alt": "a view of the beach from under the cabana "
        },
        {
            "id": 20663750,
            "width": 4000,
            "height": 6000,
            "url": "https://www.pexels.com/photo/woman-in-pink-suit-20663750/",
            "photographer": "Aaronnicc",
            "photographer_url": "https://www.pexels.com/@aaronnicc-406313937",
            "photographer_id": 406313937,
            "avg_color": "#BAB3AB",
            "src": {
                "original": "https://images.pexels.com/photos/20663750/pexels-photo-20663750.jpeg",
                "large2x": "https://images.pexels.com/photos/20663750/pexels-photo-20663750.jpeg?auto=compress\u0026cs=tinysrgb\u0026dpr=2\u0026h=650\u0026w=940",
                "large": "https://images.pexels.com/photos/20663750/pexels-photo-20663750.jpeg?auto=compress\u0026cs=tinysrgb\u0026h=650\u0026w=940",
                "medium": "https://images.pexels.com/photos/20663750/pexels-photo-20663750.jpeg?auto=compress\u0026cs=tinysrgb\u0026h=350",
                "small": "https://images.pexels.com/photos/20663750/pexels-photo-20663750.jpeg?auto=compress\u0026cs=tinysrgb\u0026h=130",
                "portrait": "https://images.pexels.com/photos/20663750/pexels-photo-20663750.jpeg?auto=compress\u0026cs=tinysrgb\u0026fit=crop\u0026h=1200\u0026w=800",
                "landscape": "https://images.pexels.com/photos/20663750/pexels-photo-20663750.jpeg?auto=compress\u0026cs=tinysrgb\u0026fit=crop\u0026h=627\u0026w=1200",
                "tiny": "https://images.pexels.com/photos/20663750/pexels-photo-20663750.jpeg?auto=compress\u0026cs=tinysrgb\u0026dpr=1\u0026fit=crop\u0026h=200\u0026w=280"
            },
            "liked": false,
            "alt": "A woman in a pink suit and hat is dancing"
        },
        {
            "id": 20654841,
            "width": 3840,
            "height": 5760,
            "url": "https://www.pexels.com/photo/bouquet-of-summer-flowers-on-rocks-20654841/",
            "photographer": "Melike  Benli",
            "photographer_url": "https://www.pexels.com/@mlkbnl",
            "photographer_id": 43043410,
            "avg_color": "#626459",
            "src": {
                "original": "https://images.pexels.com/photos/20654841/pexels-photo-20654841.jpeg",
                "large2x": "https://images.pexels.com/photos/20654841/pexels-photo-20654841.jpeg?auto=compress\u0026cs=tinysrgb\u0026dpr=2\u0026h=650\u0026w=940",
                "large": "https://images.pexels.com/photos/20654841/pexels-photo-20654841.jpeg?auto=compress\u0026cs=tinysrgb\u0026h=650\u0026w=940",
                "medium": "https://images.pexels.com/photos/20654841/pexels-photo-20654841.jpeg?auto=compress\u0026cs=tinysrgb\u0026h=350",
                "small": "https://images.pexels.com/photos/20654841/pexels-photo-20654841.jpeg?auto=compress\u0026cs=tinysrgb\u0026h=130",
                "portrait": "https://images.pexels.com/photos/20654841/pexels-photo-20654841.jpeg?auto=compress\u0026cs=tinysrgb\u0026fit=crop\u0026h=1200\u0026w=800",
                "landscape": "https://images.pexels.com/photos/20654841/pexels-photo-20654841.jpeg?auto=compress\u0026cs=tinysrgb\u0026fit=crop\u0026h=627\u0026w=1200",
                "tiny": "https://images.pexels.com/photos/20654841/pexels-photo-20654841.jpeg?auto=compress\u0026cs=tinysrgb\u0026dpr=1\u0026fit=crop\u0026h=200\u0026w=280"
            },
            "liked": false,
            "alt": "A bouquet of flowers on a stone wall"
        },
        {
            "id": 20640155,
            "width": 5400,
            "height": 5400,
            "url": "https://www.pexels.com/photo/portrait-of-woman-in-shadow-20640155/",
            "photographer": "Zahra Talebizadeh",
            "photographer_url": "https://www.pexels.com/@zahra-talebizadeh-423932604",
            "photographer_id": 423932604,
            "avg_color": "#454D40",
            "src": {
                "original": "https://images.pexels.com/photos/20640155/pexels-photo-20640155.jpeg",
                "large2x": "https://images.pexels.com/photos/20640155/pexels-photo-20640155.jpeg?auto=compress\u0026cs=tinysrgb\u0026dpr=2\u0026h=650\u0026w=940",
                "large": "https://images.pexels.com/photos/20640155/pexels-photo-20640155.jpeg?auto=compress\u0026cs=tinysrgb\u0026h=650\u0026w=940",
                "medium": "https://images.pexels.com/photos/20640155/pexels-photo-20640155.jpeg?auto=compress\u0026cs=tinysrgb\u0026h=350",
                "small": "https://images.pexels.com/photos/20640155/pexels-photo-20640155.jpeg?auto=compress\u0026cs=tinysrgb\u0026h=130",
                "portrait": "https://images.pexels.com/photos/20640155/pexels-photo-20640155.jpeg?auto=compress\u0026cs=tinysrgb\u0026fit=crop\u0026h=1200\u0026w=800",
                "landscape": "https://images.pexels.com/photos/20640155/pexels-photo-20640155.jpeg?auto=compress\u0026cs=tinysrgb\u0026fit=crop\u0026h=627\u0026w=1200",
                "tiny": "https://images.pexels.com/photos/20640155/pexels-photo-20640155.jpeg?auto=compress\u0026cs=tinysrgb\u0026dpr=1\u0026fit=crop\u0026h=200\u0026w=280"
            },
            "liked": false,
            "alt": "Portrait of Woman in Shadow"
        },
        {
            "id": 20636985,
            "width": 2400,
            "height": 3600,
            "url": "https://www.pexels.com/photo/smiling-brides-in-wedding-dresses-20636985/",
            "photographer": "Carla Searcy",
            "photographer_url": "https://www.pexels.com/@carla-searcy-1083609241",
            "photographer_id": 1083609241,
            "avg_color": "#A6A394",
            "src": {
                "original": "https://images.pexels.com/photos/20636985/pexels-photo-20636985.jpeg",
                "large2x": "https://images.pexels.com/photos/20636985/pexels-photo-20636985.jpeg?auto=compress\u0026cs=tinysrgb\u0026dpr=2\u0026h=650\u0026w=940",
                "large": "https://images.pexels.com/photos/20636985/pexels-photo-20636985.jpeg?auto=compress\u0026cs=tinysrgb\u0026h=650\u0026w=940",
                "medium": "https://images.pexels.com/photos/20636985/pexels-photo-20636985.jpeg?auto=compress\u0026cs=tinysrgb\u0026h=350",
                "small": "https://images.pexels.com/photos/20636985/pexels-photo-20636985.jpeg?auto=compress\u0026cs=tinysrgb\u0026h=130",
                "portrait": "https://images.pexels.com/photos/20636985/pexels-photo-20636985.jpeg?auto=compress\u0026cs=tinysrgb\u0026fit=crop\u0026h=1200\u0026w=800",
                "landscape": "https://images.pexels.com/photos/20636985/pexels-photo-20636985.jpeg?auto=compress\u0026cs=tinysrgb\u0026fit=crop\u0026h=627\u0026w=1200",
                "tiny": "https://images.pexels.com/photos/20636985/pexels-photo-20636985.jpeg?auto=compress\u0026cs=tinysrgb\u0026dpr=1\u0026fit=crop\u0026h=200\u0026w=280"
            },
            "liked": false,
            "alt": "love"
        },
        {
            "id": 20718260,
            "width": 5484,
            "height": 8218,
            "url": "https://www.pexels.com/photo/a-woman-in-a-dress-walks-on-the-beach-20718260/",
            "photographer": "İlkin Efendiyev",
            "photographer_url": "https://www.pexels.com/@ilkinefendiyev",
            "photographer_id": 414048612,
            "avg_color": "#949494",
            "src": {
                "original": "https://images.pexels.com/photos/20718260/pexels-photo-20718260.jpeg",
                "large2x": "https://images.pexels.com/photos/20718260/pexels-photo-20718260.jpeg?auto=compress\u0026cs=tinysrgb\u0026dpr=2\u0026h=650\u0026w=940",
                "large": "https://images.pexels.com/photos/20718260/pexels-photo-20718260.jpeg?auto=compress\u0026cs=tinysrgb\u0026h=650\u0026w=940",
                "medium": "https://images.pexels.com/photos/20718260/pexels-photo-20718260.jpeg?auto=compress\u0026cs=tinysrgb\u0026h=350",
                "small": "https://images.pexels.com/photos/20718260/pexels-photo-20718260.jpeg?auto=compress\u0026cs=tinysrgb\u0026h=130",
                "portrait": "https://images.pexels.com/photos/20718260/pexels-photo-20718260.jpeg?auto=compress\u0026cs=tinysrgb\u0026fit=crop\u0026h=1200\u0026w=800",
                "landscape": "https://images.pexels.com/photos/20718260/pexels-photo-20718260.jpeg?auto=compress\u0026cs=tinysrgb\u0026fit=crop\u0026h=627\u0026w=1200",
                "tiny": "https://images.pexels.com/photos/20718260/pexels-photo-20718260.jpeg?auto=compress\u0026cs=tinysrgb\u0026dpr=1\u0026fit=crop\u0026h=200\u0026w=280"
            },
            "liked": false,
            "alt": "A woman in a dress walks on the beach"
        },
        {
            "id": 20726107,
            "width": 4000,
            "height": 6000,
            "url": "https://www.pexels.com/photo/a-yellow-building-with-balconies-and-windows-20726107/",
            "photographer": "Laura  Meinhardt",
            "photographer_url": "https://www.pexels.com/@leefinvrede",
            "photographer_id": 270922,
            "avg_color": "#685034",
            "src": {
                "original": "https://images.pexels.com/photos/20726107/pexels-photo-20726107.jpeg",
                "large2x": "https://images.pexels.com/photos/20726107/pexels-photo-20726107.jpeg?auto=compress\u0026cs=tinysrgb\u0026dpr=2\u0026h=650\u0026w=940",
                "large": "https://images.pexels.com/photos/20726107/pexels-photo-20726107.jpeg?auto=compress\u0026cs=tinysrgb\u0026h=650\u0026w=940",
                "medium": "https://images.pexels.com/photos/20726107/pexels-photo-20726107.jpeg?auto=compress\u0026cs=tinysrgb\u0026h=350",
                "small": "https://images.pexels.com/photos/20726107/pexels-photo-20726107.jpeg?auto=compress\u0026cs=tinysrgb\u0026h=130",
                "portrait": "https://images.pexels.com/photos/20726107/pexels-photo-20726107.jpeg?auto=compress\u0026cs=tinysrgb\u0026fit=crop\u0026h=1200\u0026w=800",
                "landscape": "https://images.pexels.com/photos/20726107/pexels-photo-20726107.jpeg?auto=compress\u0026cs=tinysrgb\u0026fit=crop\u0026h=627\u0026w=1200",
                "tiny": "https://images.pexels.com/photos/20726107/pexels-photo-20726107.jpeg?auto=compress\u0026cs=tinysrgb\u0026dpr=1\u0026fit=crop\u0026h=200\u0026w=280"
            },
            "liked": false,
            "alt": "A yellow building with balconies and windows"
        },
        {
            "id": 20716698,
            "width": 4500,
            "height": 6000,
            "url": "https://www.pexels.com/photo/surfboards-on-the-beach-in-honolulu-20716698/",
            "photographer": "Robert Linder",
            "photographer_url": "https://www.pexels.com/@robert-linder-1082991298",
            "photographer_id": 1082991298,
            "avg_color": "#8D8779",
            "src": {
                "original": "https://images.pexels.com/photos/20716698/pexels-photo-20716698.jpeg",
                "large2x": "https://images.pexels.com/photos/20716698/pexels-photo-20716698.jpeg?auto=compress\u0026cs=tinysrgb\u0026dpr=2\u0026h=650\u0026w=940",
                "large": "https://images.pexels.com/photos/20716698/pexels-photo-20716698.jpeg?auto=compress\u0026cs=tinysrgb\u0026h=650\u0026w=940",
                "medium": "https://images.pexels.com/photos/20716698/pexels-photo-20716698.jpeg?auto=compress\u0026cs=tinysrgb\u0026h=350",
                "small": "https://images.pexels.com/photos/20716698/pexels-photo-20716698.jpeg?auto=compress\u0026cs=tinysrgb\u0026h=130",
                "portrait": "https://images.pexels.com/photos/20716698/pexels-photo-20716698.jpeg?auto=compress\u0026cs=tinysrgb\u0026fit=crop\u0026h=1200\u0026w=800",
                "landscape": "https://images.pexels.com/photos/20716698/pexels-photo-20716698.jpeg?auto=compress\u0026cs=tinysrgb\u0026fit=crop\u0026h=627\u0026w=1200",
                "tiny": "https://images.pexels.com/photos/20716698/pexels-photo-20716698.jpeg?auto=compress\u0026cs=tinysrgb\u0026dpr=1\u0026fit=crop\u0026h=200\u0026w=280"
            },
            "liked": false,
            "alt": "Surfboards on the beach in Honolulu."
        },
        {
            "id": 20714419,
            "width": 3000,
            "height": 4000,
            "url": "https://www.pexels.com/photo/voyage-a-los-angeles-20714419/",
            "photographer": "Quentin Chansaulme",
            "photographer_url": "https://www.pexels.com/@quentin-chansaulme-423965555",
            "photographer_id": 423965555,
            "avg_color": "#5E5E5E",
            "src": {
                "original": "https://images.pexels.com/photos/20714419/pexels-photo-20714419.jpeg",
                "large2x": "https://images.pexels.com/photos/20714419/pexels-photo-20714419.jpeg?auto=compress\u0026cs=tinysrgb\u0026dpr=2\u0026h=650\u0026w=940",
                "large": "https://images.pexels.com/photos/20714419/pexels-photo-20714419.jpeg?auto=compress\u0026cs=tinysrgb\u0026h=650\u0026w=940",
                "medium": "https://images.pexels.com/photos/20714419/pexels-photo-20714419.jpeg?auto=compress\u0026cs=tinysrgb\u0026h=350",
                "small": "https://images.pexels.com/photos/20714419/pexels-photo-20714419.jpeg?auto=compress\u0026cs=tinysrgb\u0026h=130",
                "portrait": "https://images.pexels.com/photos/20714419/pexels-photo-20714419.jpeg?auto=compress\u0026cs=tinysrgb\u0026fit=crop\u0026h=1200\u0026w=800",
                "landscape": "https://images.pexels.com/photos/20714419/pexels-photo-20714419.jpeg?auto=compress\u0026cs=tinysrgb\u0026fit=crop\u0026h=627\u0026w=1200",
                "tiny": "https://images.pexels.com/photos/20714419/pexels-photo-20714419.jpeg?auto=compress\u0026cs=tinysrgb\u0026dpr=1\u0026fit=crop\u0026h=200\u0026w=280"
            },
            "liked": false,
            "alt": "Voyage à Los Angeles"
        },
        {
            "id": 20715229,
            "width": 6000,
            "height": 8000,
            "url": "https://www.pexels.com/photo/a-chair-sits-in-a-field-next-to-a-tree-20715229/",
            "photographer": "aminesargl",
            "photographer_url": "https://www.pexels.com/@aminesargl-1089909335",
            "photographer_id": 1089909335,
            "avg_color": "#505D4B",
            "src": {
                "original": "https://images.pexels.com/photos/20715229/pexels-photo-20715229.jpeg",
                "large2x": "https://images.pexels.com/photos/20715229/pexels-photo-20715229.jpeg?auto=compress\u0026cs=tinysrgb\u0026dpr=2\u0026h=650\u0026w=940",
                "large": "https://images.pexels.com/photos/20715229/pexels-photo-20715229.jpeg?auto=compress\u0026cs=tinysrgb\u0026h=650\u0026w=940",
                "medium": "https://images.pexels.com/photos/20715229/pexels-photo-20715229.jpeg?auto=compress\u0026cs=tinysrgb\u0026h=350",
                "small": "https://images.pexels.com/photos/20715229/pexels-photo-20715229.jpeg?auto=compress\u0026cs=tinysrgb\u0026h=130",
                "portrait": "https://images.pexels.com/photos/20715229/pexels-photo-20715229.jpeg?auto=compress\u0026cs=tinysrgb\u0026fit=crop\u0026h=1200\u0026w=800",
                "landscape": "https://images.pexels.com/photos/20715229/pexels-photo-20715229.jpeg?auto=compress\u0026cs=tinysrgb\u0026fit=crop\u0026h=627\u0026w=1200",
                "tiny": "https://images.pexels.com/photos/20715229/pexels-photo-20715229.jpeg?auto=compress\u0026cs=tinysrgb\u0026dpr=1\u0026fit=crop\u0026h=200\u0026w=280"
            },
            "liked": false,
            "alt": "A chair sits in a field next to a tree"
        },
        {
            "id": 20632618,
            "width": 5028,
            "height": 3648,
            "url": "https://www.pexels.com/photo/a-black-and-white-photo-of-a-person-walking-in-the-middle-of-a-crowd-20632618/",
            "photographer": "Shiva Kumar Reddy",
            "photographer_url": "https://www.pexels.com/@shiva-kumar-reddy-38385642",
            "photographer_id": 38385642,
            "avg_color": "#696969",
            "src": {
                "original": "https://images.pexels.com/photos/20632618/pexels-photo-20632618.jpeg",
                "large2x": "https://images.pexels.com/photos/20632618/pexels-photo-20632618.jpeg?auto=compress\u0026cs=tinysrgb\u0026dpr=2\u0026h=650\u0026w=940",
                "large": "https://images.pexels.com/photos/20632618/pexels-photo-20632618.jpeg?auto=compress\u0026cs=tinysrgb\u0026h=650\u0026w=940",
                "medium": "https://images.pexels.com/photos/20632618/pexels-photo-20632618.jpeg?auto=compress\u0026cs=tinysrgb\u0026h=350",
                "small": "https://images.pexels.com/photos/20632618/pexels-photo-20632618.jpeg?auto=compress\u0026cs=tinysrgb\u0026h=130",
                "portrait": "https://images.pexels.com/photos/20632618/pexels-photo-20632618.jpeg?auto=compress\u0026cs=tinysrgb\u0026fit=crop\u0026h=1200\u0026w=800",
                "landscape": "https://images.pexels.com/photos/20632618/pexels-photo-20632618.jpeg?auto=compress\u0026cs=tinysrgb\u0026fit=crop\u0026h=627\u0026w=1200",
                "tiny": "https://images.pexels.com/photos/20632618/pexels-photo-20632618.jpeg?auto=compress\u0026cs=tinysrgb\u0026dpr=1\u0026fit=crop\u0026h=200\u0026w=280"
            },
            "liked": false,
            "alt": "A black and white photo of a person walking in the middle of a crowd"
        },
        {
            "id": 20655491,
            "width": 4032,
            "height": 6048,
            "url": "https://www.pexels.com/photo/a-plant-with-pink-flowers-and-green-leaves-20655491/",
            "photographer": "Cz Jen",
            "photographer_url": "https://www.pexels.com/@cz-jen-3774356",
            "photographer_id": 3774356,
            "avg_color": "#2D432E",
            "src": {
                "original": "https://images.pexels.com/photos/20655491/pexels-photo-20655491.jpeg",
                "large2x": "https://images.pexels.com/photos/20655491/pexels-photo-20655491.jpeg?auto=compress\u0026cs=tinysrgb\u0026dpr=2\u0026h=650\u0026w=940",
                "large": "https://images.pexels.com/photos/20655491/pexels-photo-20655491.jpeg?auto=compress\u0026cs=tinysrgb\u0026h=650\u0026w=940",
                "medium": "https://images.pexels.com/photos/20655491/pexels-photo-20655491.jpeg?auto=compress\u0026cs=tinysrgb\u0026h=350",
                "small": "https://images.pexels.com/photos/20655491/pexels-photo-20655491.jpeg?auto=compress\u0026cs=tinysrgb\u0026h=130",
                "portrait": "https://images.pexels.com/photos/20655491/pexels-photo-20655491.jpeg?auto=compress\u0026cs=tinysrgb\u0026fit=crop\u0026h=1200\u0026w=800",
                "landscape": "https://images.pexels.com/photos/20655491/pexels-photo-20655491.jpeg?auto=compress\u0026cs=tinysrgb\u0026fit=crop\u0026h=627\u0026w=1200",
                "tiny": "https://images.pexels.com/photos/20655491/pexels-photo-20655491.jpeg?auto=compress\u0026cs=tinysrgb\u0026dpr=1\u0026fit=crop\u0026h=200\u0026w=280"
            },
            "liked": false,
            "alt": "A plant with pink flowers and green leaves"
        }
    ],
    "total_results": 8000,
    "next_page": "https://api.pexels.com/v1/curated/?page=2\u0026per_page=15"
}